Luxemburg Project
…
New names:
• `*` -> `*...3`
• `*` -> `*...4`

Let’s see the neat data:

raw_data

# A tibble: 1,343 × 9
   commune    nombre_doffres prix_moyen_annonce_e…¹ prix_moyen_annonce_a…² year 
   <chr>               <dbl> <chr>                  <chr>                  <chr>
 1 Bascharage            192 593698.31000000006     3603.57                2010 
 2 Beaufort              266 461160.29              2902.76                2010 
 3 Bech                   65 621760.22              3280.51                2010 
 4 Beckerich             176 444498.68              2867.88                2010 
 5 Berdorf               111 504040.85              3055.99                2010 
 6 Bertrange             264 795338.87              4266.46                2010 
 7 Bettembou…            304 555628.29              3343.22                2010 
 8 Bettendorf             94 495074.38              3235.26                2010 
 9 Betzdorf              119 625914.47              3343.05                2010 
10 Bissen                 70 516465.57              3321.65                2010 
# ℹ 1,333 more rows
# ℹ abbreviated names: ¹​prix_moyen_annonce_en_courant,
#   ²​prix_moyen_annonce_au_m2_en_courant
# ℹ 4 more variables: bech <chr>, x12 <dbl>, x3 <chr>, x4 <chr>
…
